<?xml version="1.0" encoding="UTF-8"?>
<svg width="20px" height="14px" viewBox="0 0 20 14" version="1.1" xmlns="http://www.w3.org/2000/svg" xmlns:xlink="http://www.w3.org/1999/xlink">
    <!-- Generator: Sketch 49.1 (51147) - http://www.bohemiancoding.com/sketch -->
    <title>noun_1572972_cc</title>
    <desc>Created with Sketch.</desc>
    <defs></defs>
    <g id="Page-1" stroke="none" stroke-width="1" fill="none" fill-rule="evenodd">
        <g id="noun_1572972_cc" fill="#000000" fill-rule="nonzero">
            <path d="M17.5,2.8 L16.1,2.8 C15.7133667,2.8 15.4,3.11336667 15.4,3.5 L15.4,5.6 L14,5.6 L14,4.2 C14,3.4279 13.3721,2.8 12.6,2.8 L9.1,2.8 L9.1,1.4 L11.9,1.4 C12.2866333,1.4 12.6,1.08663333 12.6,0.7 C12.6,0.313366667 12.2866333,0 11.9,0 L4.9,0 C4.51336667,0 4.2,0.313366667 4.2,0.7 C4.2,1.08663333 4.51336667,1.4 4.9,1.4 L7.7,1.4 L7.7,2.8 L4.2,2.8 C3.4279,2.8 2.8,3.4279 2.8,4.2 L2.8,7 L1.4,7 L1.4,4.2 C1.4,3.81336667 1.08663333,3.5 0.7,3.5 C0.313366667,3.5 0,3.81336667 0,4.2 L0,11.2 C0,11.5866333 0.313366667,11.9 0.7,11.9 C1.08663333,11.9 1.4,11.5866333 1.4,11.2 L1.4,8.4 L2.8,8.4 L2.8,10.85 C2.8,11.2884333 3.00953333,11.7072667 3.35976667,11.9697667 L5.69286667,13.7195333 C5.93366667,13.9006 6.23186667,14 6.53333333,14 L12.6,14 C13.3721,14 14,13.3721 14,12.6 L14,10.5 L15.4,10.5 L15.4,12.6 C15.4,12.9866333 15.7133667,13.3 16.1,13.3 L17.5,13.3 C18.6580333,13.3 19.6,12.3580333 19.6,11.2 L19.6,4.9 C19.6,3.74196667 18.6580333,2.8 17.5,2.8 Z M18.2,11.2 C18.2,11.5859333 17.8859333,11.9 17.5,11.9 L16.8,11.9 L16.8,9.8 C16.8,9.41336667 16.4866333,9.1 16.1,9.1 L13.3,9.1 C12.9133667,9.1 12.6,9.41336667 12.6,9.8 L12.6,12.6 L6.53333333,12.6 L4.2,10.85 L4.2,4.2 L12.6,4.2 L12.6,6.3 C12.6,6.68663333 12.9133667,7 13.3,7 L16.1,7 C16.4866333,7 16.8,6.68663333 16.8,6.3 L16.8,4.2 L17.5,4.2 C17.8859333,4.2 18.2,4.51406667 18.2,4.9 L18.2,11.2 Z" id="Shape"></path>
            <path d="M10.4174,8.06983333 C10.5389667,8.29756667 10.5256667,8.5736 10.3826333,8.78826667 L8.98263333,10.8882667 C8.76773333,11.2102667 8.33256667,11.2963667 8.01196667,11.0824 C7.69043333,10.8682 7.60363333,10.4332667 7.81783333,10.1117333 L8.49193333,9.1 L7,9.1 C6.74193333,9.1 6.50463333,8.9579 6.3826,8.73016667 C6.26103333,8.50243333 6.27433333,8.2264 6.41736667,8.01173333 L7.81736667,5.91173333 C8.03156667,5.58973333 8.4658,5.5027 8.78803333,5.7176 C9.10956667,5.9318 9.19636667,6.36673333 8.98216667,6.68826667 L8.30806667,7.7 L9.8,7.7 C10.0580667,7.7 10.2953667,7.8421 10.4174,8.06983333 Z" id="Shape"></path>
        </g>
    </g>
</svg>